…
check your n’s

``` r
# These N checks are done to get a understanding of the attributes count

# check N by Items
df_bakery %>% count(Items)
```

    ## # A tibble: 94 x 2
    ##    Items                        n
    ##    <chr>                    <int>
    ##  1 Adjustment                   1
    ##  2 Afternoon with the baker    44
    ##  3 Alfajores                  369
    ##  4 Argentina Night              7
    ##  5 Art Tray                    38
    ##  6 Bacon                        1
    ##  7 Baguette                   152
    ##  8 Bakewell                    48
    ##  9 Bare Popcorn                 5
    ## 10 Basket                       6
    ## # … with 84 more rows
…
    ## # A tibble: 2 x 2
    ##   DayType     n
    ##   <chr>   <int>
    ## 1 Weekday 12807
    ## 2 Weekend  7700

``` r
# check N by Date, amount sales per date
df_bakery %>% 
  mutate(Date=as.Date(DateTime)) %>% 
  count(Date)
```

    ## # A tibble: 159 x 2
    ##    Date           n
    ##    <date>     <int>
    ##  1 2016-01-11   150
    ##  2 2016-01-12    83
    ##  3 2016-02-11   164
    ##  4 2016-02-12   104
    ##  5 2016-03-11   189
    ##  6 2016-03-12   191
    ##  7 2016-04-11   187
    ##  8 2016-04-12   121
    ##  9 2016-05-11   275
    ## 10 2016-05-12   117
    ## # … with 149 more rows
…
``` r
# The idea here is to get a insight in the sales during weekdays and hours over time

# a new tibble with 2 new variables, wday (week day) and hour
df_bakery_wday <- df_bakery %>% 
  arrange(DateTime) %>% 
  mutate(wday = wday(DateTime, label = TRUE, week_start=1, abbr=FALSE, locale='en_GB'), 
         hour = hour(DateTime))

# display tibble
df_bakery_wday
```

    ## # A tibble: 20,507 x 7
    ##    TransactionNo Items  DateTime            Daypart DayType wday    hour
    ##            <dbl> <chr>  <dttm>              <chr>   <chr>   <ord>  <int>
    ##  1           178 Coffee 2016-01-11 07:51:20 Morning Weekday Monday     7
    ##  2           178 Pastry 2016-01-11 07:51:20 Morning Weekday Monday     7
    ##  3           179 Coffee 2016-01-11 08:20:50 Morning Weekday Monday     8
    ##  4           179 Pastry 2016-01-11 08:20:50 Morning Weekday Monday     8
    ##  5           180 Jam    2016-01-11 08:22:28 Morning Weekday Monday     8
    ##  6           180 Tea    2016-01-11 08:22:28 Morning Weekday Monday     8
    ##  7           181 Tea    2016-01-11 08:45:20 Morning Weekday Monday     8
    ##  8           181 Tea    2016-01-11 08:45:20 Morning Weekday Monday     8
    ##  9           182 Pastry 2016-01-11 09:07:47 Morning Weekday Monday     9
    ## 10           182 Pastry 2016-01-11 09:07:47 Morning Weekday Monday     9
    ## # … with 20,497 more rows
…
    ## # A tibble: 2 x 7
    ##   TransactionNo Items           DateTime            Daypart DayType wday    hour
    ##           <dbl> <chr>           <dttm>              <chr>   <chr>   <ord>  <int>
    ## 1          6588 Valentine's ca… 2017-02-14 23:29:03 Night   Weekday Tuesd…    23
    ## 2          4090 Bread           2017-01-01 01:21:05 Morning Weekend Sunday     1

``` r
# as the company switched to online shopping, people make also orders in the evening
df_bakery_wday %>% 
  filter(between(hour, 20, max_hour)) %>% 
  arrange(desc(hour))
```

    ## # A tibble: 36 x 7
    ##    TransactionNo Items         DateTime            Daypart DayType wday     hour
    ##            <dbl> <chr>         <dttm>              <chr>   <chr>   <ord>   <int>
    ##  1          6588 Valentine's … 2017-02-14 23:29:03 Night   Weekday Tuesday    23
    ##  2          6589 Valentine's … 2017-02-14 23:38:41 Night   Weekday Tuesday    23
    ##  3          9648 Vegan Feast   2017-08-04 23:20:54 Night   Weekend Friday     23
    ##  4          9448 Juice         2017-05-04 22:15:55 Night   Weekday Thursd…    22
    ##  5          9448 Mineral water 2017-05-04 22:15:55 Night   Weekday Thursd…    22
    ##  6          9638 Vegan Feast   2017-08-04 22:41:09 Night   Weekend Friday     22
    ##  7          9640 Vegan Feast   2017-08-04 22:43:06 Night   Weekend Friday     22
    ##  8          9641 Vegan Feast   2017-08-04 22:45:51 Night   Weekend Friday     22
    ##  9          9642 Scandinavian  2017-08-04 22:47:27 Night   Weekend Friday     22
    ## 10          9643 Vegan Feast   2017-08-04 22:48:52 Night   Weekend Friday     22
    ## # … with 26 more rows

``` r
# here we see a strange online order at 1:21 am, because I dont have much info on opening hours and delivery I can not say much but it is somehow funny to order a bread at 1:21 am
# I have chosen not to visualize 1 record (online order at 1:21:05 am), which is reported as the 1st row in the tibble below. The reason is to have a more fine visualized plot and because this concerns 1 record, it is fine to have it reported.
df_bakery_wday %>% 
  filter(between(hour, min_hour, 10)) %>% 
  arrange(hour)
```

    ## # A tibble: 5,302 x 7
    ##    TransactionNo Items     DateTime            Daypart DayType wday     hour
    ##            <dbl> <chr>     <dttm>              <chr>   <chr>   <ord>   <int>
    ##  1          4090 Bread     2017-01-01 01:21:05 Morning Weekend Sunday      1
    ##  2           178 Coffee    2016-01-11 07:51:20 Morning Weekday Monday      7
    ##  3           178 Pastry    2016-01-11 07:51:20 Morning Weekday Monday      7
    ##  4           340 Coffee    2016-03-11 07:46:50 Morning Weekday Friday      7
    ##  5           340 Bread     2016-03-11 07:46:50 Morning Weekday Friday      7
    ##  6           341 Medialuna 2016-03-11 07:50:50 Morning Weekday Friday      7
    ##  7           341 Medialuna 2016-03-11 07:50:50 Morning Weekday Friday      7
    ##  8           437 Medialuna 2016-04-11 07:32:33 Morning Weekday Monday      7
    ##  9          1275 Coffee    2016-11-14 07:39:27 Morning Weekday Monday      7
    ## 10          1342 Coffee    2016-11-15 07:42:27 Morning Weekday Tuesday     7
    ## # … with 5,292 more rows
…
